{
  "loader": {
    "data_path": "data/testing_data.csv",
    "delimiter": ",",
    "comment_symbol": "#",
    "date_format": "%d/%m/%Y %H:%M:%S",
    "start_row": 1,
    "columns": {
      "date": 0,
      "open": 1,
      "high": 2,
      "low": 3,
      "close": 4
    },
    "days_to_load": [
      "Monday",
      "Tuesday",
      "Wednesday",
      "Thursday",
      "Friday"
    ],
    "times_to_load": {
      "start_hour": 9,
      "start_min": 0,
      "end_hour": 17,
      "end_min": 0
    }
  },
  "logger": {
    "log_path": "logs/backtest_log.txt",
    "percentage_decimal_places": 4,
    "return_decimal_places": 2
  },
  "simulation": {
    "threads": 4
  }
}